Investigation
…
Hello reader, I will take you through my journey on the data. As this is an exploratory data analysis, I will not revise this afterwards, but show you my way of working through this dataset.

After reading it in, I want to get a feel for the data. I usually do this by looking at summary statistics of individual columns.

Lets start by looking at the users first, as they are the most important stakeholder for us. We start by looking at where they are coming from.

users %>% 
  group_by(country_id) %>% 
  summarise(n=n()) %>% 
  arrange(-n)

## # A tibble: 205 x 2
##    country_id     n
##    <chr>      <int>
##  1 NULL       10086
##  2 US          5192
##  3 IN          2010
##  4 LV          1908
##  5 RO          1478
##  6 AU          1435
##  7 DE          1184
##  8 UA           837
##  9 PK           756
## 10 MX           751
## # ... with 195 more rows
…
Looking at chapters now. First thing I feel like knowing is if the subjects on the chapters_ids are consistent or fluctuate. My thought was to split the subjects up to dive deeper into them, but they need to be consistent for it to make any sense on chapter_id level.

chapters %>% 
  group_by(chapter_id, subjects) %>% 
  summarise(visits=n())

## `summarise()` has grouped output by 'chapter_id'. You can override using the `.groups` argument.

## # A tibble: 766 x 3
## # Groups:   chapter_id [766]
##    chapter_id subjects                                                    visits
##         <dbl> <chr>                                                        <int>
##  1          0 <NA>                                                             1
##  2          1 ['Pediatrics', 'Otolaryngology', 'Infectiology']               510
##  3          2 ['Pneumology', 'Infectiology']                                 486
##  4          3 ['Neurology', 'Infectiology', 'General surgery']               981
##  5          4 ['General surgery', 'Infectiology']                            213
##  6          6 ['Obstetrics', 'Urology', 'Pneumology', 'Gynecology', 'Oph~   1365
##  7         14 ['Infectiology', 'Hygiene,microbiology,virology', 'Gastr~    344
##  8         16 ['Gastroenterology', 'Hygiene,microbiology,virology', 'I~    645
##  9         17 ['Infectiology', 'Neurology', 'Dermatology']                  1648
## 10         18 ['Infectiology']                                               392
## # ... with 756 more rows
…
chapter_subject_mapper = chapters %>% 
  group_by(chapter_id) %>% 
  mutate(rank = row_number()) %>% # running index
  ungroup() %>% 
  filter(rank==1) %>% # select the first entry
  select(chapter_id, subjects) %>% 
  mutate(subjects = str_replace_all(subjects,"\\[|\\]|'","")) %>% # remove brackets and single quotation
  separate_rows(subjects, sep = ",") %>% # split by comma into new rows
  filter(subjects!="") %>% # remove parsing errors
  rename(subject=subjects) %>% # renaming
  mutate(subject = tolower(subject)) # lowercasing
chapter_subject_mapper

## # A tibble: 1,673 x 2
##    chapter_id subject                                      
##         <dbl> <chr>                                        
##  1        274 "occupational medicine,social medicine"     
##  2        274 " pneumology"                                
##  3        269 "imaging,radiotherapy,radiation protection"
##  4        269 " pneumology"                                
##  5        622 "infectiology"                               
##  6        622 " otolaryngology"                            
##  7        622 " pediatrics"                                
##  8        937 "emergency medicine"                         
##  9        937 " anesthesiology"                            
## 10        937 " pneumology"                                
## # ... with 1,663 more rows

In the chunk above I take the first entry of all chapter_ids, drop the rest as well as all cols which are not relevant and then turn every subject into an individual row.

Now we could easily answer a question like which subject has the highest average reading time. Or which subject has the lowest amount of readers. Lets do that quickly!

chapters %>% 
  left_join(chapter_subject_mapper) %>% 
  group_by(subject) %>% 
  summarise(number_reads = n(),
            average_reading_time = mean(time_spent, na.rm=TRUE),
            number_of_readers = length(unique(user_id)))

## Joining, by = "chapter_id"

## # A tibble: 92 x 4
##    subject                      number_reads average_reading_t~ number_of_reade~
##    <chr>                               <int>              <dbl>            <int>
##  1 " abdominal surgery"                33191               53.4             3730
##  2 " anatomy"                             27                4                 23
##  3 " anesthesiology"                   15067               42.0             3340
##  4 " biochemistry"                         7              NaN                  4
##  5 " cardiology and angiology"         66420               46.9             7479
##  6 " child and adolescent psyc~         2504               58.1              886
##  7 " clinical-pathological con~          708               55.0              248
##  8 " clinical chemistry,labor~        31062               52.6             4408
##  9 " clinical pharmacology / p~        38588               50.9             5620
## 10 " dermatology"                      38113               47.9             5037
## # ... with 82 more rows
…
KPI definitions

Interaction Volumne

With the Interaction Volumne KPIs we want to express a customers behavior in the first 5 days, a foundation for predicting the likelyhood use the tool after the free trial.

We start by defining up until which point the free trial worked, ultimately we should exclude those cases where there was an activation within those 5 days, but I skip that for time sake.

user_regis = users %>% 
  mutate(register_date = date(register_date),
         free_trial_until = register_date+5) %>% 
  select(user_id, register_date, free_trial_until)
user_regis

## # A tibble: 43,783 x 3
##    user_id register_date free_trial_until
##      <dbl> <date>        <date>          
##  1 1079934 2017-10-01    2017-10-06      
##  2 1080081 2017-10-01    2017-10-06      
##  3 1080241 2017-10-01    2017-10-06      
##  4 1080395 2017-10-02    2017-10-07      
##  5 1080507 2017-10-02    2017-10-07      
##  6 1080765 2017-10-02    2017-10-07      
##  7 1080839 2017-10-03    2017-10-08      
##  8 1080864 2017-10-03    2017-10-08      
##  9 1081069 2017-10-03    2017-10-08      
## 10 1081363 2017-10-04    2017-10-09      
## # ... with 43,773 more rows

Next, we combine it with their chapters information. I want to derive 3 metrics here: Number of chapters they started, number of chapters they have not spend any time on, and the sum of time_spent. All 3 should grant us insights. Note that time_spent is only available for mobile users.

chapter_KPIs = user_regis %>% 
  left_join(chapters, by="user_id") %>% 
  mutate(chapter_c_date = date(created_at)) %>% 
  filter(chapter_c_date <= free_trial_until) %>%
  group_by(user_id) %>% 
  summarise(n_chapters = n(),
            n_spent_time = n_chapters - sum(is.na(time_spent)),
            sum_time_spent = sum(time_spent, na.rm = TRUE))
chapter_KPIs

## # A tibble: 18,452 x 4
##    user_id n_chapters n_spent_time sum_time_spent
##      <dbl>      <int>        <int>          <dbl>
##  1 1079921          1            0              0
##  2 1079924          2            0              0
##  3 1079926         48            0              0
##  4 1079931          7            7            129
##  5 1079932          1            0              0
##  6 1079933         11            0              0
##  7 1079934         16            0              0
##  8 1079939          1            0              0
##  9 1079940         22           21            819
## 10 1079941         20            4             25
## # ... with 18,442 more rows
…
Just as a sidenote, the questions offer a tremendous amount of insights. Hint-usage, answer-rate, difficulty and we can link it all back to the chapters and their content. Thats a holy grail for analytical purposes.

question_KPIs = user_regis %>% 
  left_join(questions, by="user_id") %>% 
  mutate(question_c_date = date(created_at)) %>% 
  filter(question_c_date <= free_trial_until) %>%
  group_by(user_id) %>% 
  summarise(n_questions = n(),
            given_up_flag = any(has_given_up==1),
            right_answer_rate = round(mean(was_answer_correct, na.rm = TRUE)*100,2),
            sum_time_spent_q = sum(time_spent, na.rm = TRUE))
question_KPIs

## # A tibble: 12,683 x 5
##    user_id n_questions given_up_flag right_answer_rate sum_time_spent_q
##      <dbl>       <int> <lgl>                     <dbl>            <dbl>
##  1 1079919          27 FALSE                      7.41             9500
##  2 1079921           6 FALSE                     16.7               991
##  3 1079923           1 FALSE                      0               16069
##  4 1079924           1 FALSE                      0                  48
##  5 1079926           4 FALSE                     50                 415
##  6 1079934          16 FALSE                     37.5              1126
##  7 1079939           1 FALSE                      0                 102
##  8 1079941           1 FALSE                      0                  24
##  9 1079942           1 FALSE                      0                  90
## 10 1079943          13 FALSE                     46.2               491
## # ... with 12,673 more rows

The questions also do have a time spent columns, my instinct is to sum it up with the time spend of chapters to get a fuller picture.

I created a flag if they ever given up, counted questions, calculated the share of right answers and calculated time spent on questions.

Now I bring them together!

interaction_volume = chapter_KPIs %>% 
  left_join(question_KPIs, by = "user_id") %>% 
  mutate(time_spent_trial = sum_time_spent+sum_time_spent_q)
interaction_volume

## # A tibble: 18,173 x 9
##    user_id n_chapters n_spent_time sum_time_spent n_questions given_up_flag
##      <dbl>      <int>        <int>          <dbl>       <int> <lgl>        
##  1 1079921          1            0              0           6 FALSE        
##  2 1079924          2            0              0           1 FALSE        
##  3 1079926         48            0              0           4 FALSE        
##  4 1079931          7            7            129          NA NA           
##  5 1079932          1            0              0          NA NA           
##  6 1079933         11            0              0          NA NA           
##  7 1079934         16            0              0          16 FALSE        
##  8 1079939          1            0              0           1 FALSE        
##  9 1079940         22           21            819          NA NA           
## 10 1079941         20            4             25           1 FALSE        
## # ... with 18,163 more rows, and 3 more variables: right_answer_rate <dbl>,
## #   sum_time_spent_q <dbl>, time_spent_trial <dbl>
The lack of adaptation of the questions feature makes it hard to judge the meaningfulnis of those KPIs. For me, every NA in these KPIs is also telling a story. The fact, that a customer has not discovered or used the questions feature is a valid observation which could have a big impact. You always have to question if your missing data is actual data!

timespent: 1:45h

Analysis for interaction volumn in trial period

Given the KPIs we just developed, we are able to answer some questions. First off, lets try to find a link between the first 5 days of activity and the number of code activations throughout their lifetime.

activation_counts = activations %>% group_by(user_id) %>% count()
df = interaction_volume %>% 
  left_join(activation_counts, by="user_id") %>% 
  select(n_chapters, n_questions,right_answer_rate, given_up_flag, time_spent_trial, n)
df

## # A tibble: 18,173 x 6
##    n_chapters n_questions right_answer_rate given_up_flag time_spent_trial     n
##         <int>       <int>             <dbl> <lgl>                    <dbl> <int>
##  1          1           6              16.7 FALSE                      991     1
##  2          2           1               0   FALSE                       48    NA
##  3         48           4              50   FALSE                      415    NA
##  4          7          NA              NA   NA                          NA    NA
##  5          1          NA              NA   NA                          NA    NA
##  6         11          NA              NA   NA                          NA     1
##  7         16          16              37.5 FALSE                     1126     2
##  8          1           1               0   FALSE                      102    NA
##  9         22          NA              NA   NA                          NA    NA
## 10         20           1               0   FALSE                       49    NA
## # ... with 18,163 more rows
…
